[
{
    "fields": {
        "name": "Contact Energy",
        "site": "https://www.contact.co.nz/",
        "bank_account_name": "",
        "rate": 50,
        "slug": "contact-energy",
        "bank": "anz",
        "bank_account_no": ""
    },
    "model": "nzpower.company",
    "pk": 1
},
{
    "fields": {
        "name": "Energy Direct",
        "site": "http://www.energydirectnz.co.nz/",
        "bank_account_name": "",
        "rate": 50,
        "slug": "energy-direct",
        "bank": "anz",
        "bank_account_no": ""
    },
    "model": "nzpower.company",
    "pk": 2
},
{
    "fields": {
        "name": "Energy Online",
        "site": "http://www.energyonline.co.nz/",
        "bank_account_name": "",
        "rate": 50,
        "slug": "energy-online",
        "bank": "anz",
        "bank_account_no": ""
    },
    "model": "nzpower.company",
    "pk": 3
},
{
    "fields": {
        "name": "Genesis Energy",
        "site": "https://www.genesisenergy.co.nz/",
        "bank_account_name": "",
        "rate": 50,
        "slug": "genesis-energy",
        "bank": "anz",
        "bank_account_no": ""
    },
    "model": "nzpower.company",
    "pk": 4
},
{
    "fields": {
        "name": "King Country Energy",
        "site": "http://www.kce.co.nz/",
        "bank_account_name": "",
        "rate": 50,
        "slug": "king-country-energy",
        "bank": "anz",
        "bank_account_no": ""
    },
    "model": "nzpower.company",
    "pk": 5
},
{
    "fields": {
        "name": "Mercury Energy",
        "site": "https://www.mercury.co.nz/",
        "bank_account_name": "",
        "rate": 50,
        "slug": "mercury-energy",
        "bank": "anz",
        "bank_account_no": ""
    },
    "model": "nzpower.company",
    "pk": 6
},
{
    "fields": {
        "name": "Meridian",
        "site": "https://www.meridianenergy.co.nz/",
        "bank_account_name": "",
        "rate": 50,
        "slug": "meridian",
        "bank": "anz",
        "bank_account_no": ""
    },
    "model": "nzpower.company",
    "pk": 7
},
{
    "fields": {
        "name": "Nova Energy",
        "site": "https://www.novaenergy.co.nz/",
        "bank_account_name": "",
        "rate": 50,
        "slug": "nova-energy",
        "bank": "anz",
        "bank_account_no": ""
    },
    "model": "nzpower.company",
    "pk": 8
},
{
    "fields": {
        "name": "Powershop",
        "site": "http://www.powershop.co.nz/",
        "bank_account_name": "",
        "rate": 50,
        "slug": "powershop",
        "bank": "anz",
        "bank_account_no": ""
    },
    "model": "nzpower.company",
    "pk": 9
},
{
    "fields": {
        "name": "Pulse Energy",
        "site": "https://www.pulseenergy.co.nz/",
        "bank_account_name": "",
        "rate": 50,
        "slug": "pulse-energy",
        "bank": "anz",
        "bank_account_no": ""
    },
    "model": "nzpower.company",
    "pk": 10
},
{
    "fields": {
        "name": "Simply Energy",
        "site": "http://simplyenergy.co.nz/",
        "bank_account_name": "",
        "rate": 50,
        "slug": "simply-energy",
        "bank": "anz",
        "bank_account_no": ""
    },
    "model": "nzpower.company",
    "pk": 11
},
{
    "fields": {
        "name": "Trustpower",
        "site": "https://www.trustpower.co.nz/",
        "bank_account_name": "",
        "rate": 50,
        "slug": "trustpower",
        "bank": "anz",
        "bank_account_no": ""
    },
    "model": "nzpower.company",
    "pk": 12
}
]
